uart/simulation/questa/rxtx_tb.vcd
$date
	Fri Mar 14 19:57:20 2025
$end
$version
	Questa Intel Starter FPGA Edition Version 2023.3
$end
$timescale
	1ps
$end

$scope module rxtx_tb $end
$var reg 1 ! clk $end
$var reg 1 " rst $end
$var reg 1 # btn $end
$var reg 8 $ sw [7:0] $end
$var wire 1 % leds [7] $end
$var wire 1 & leds [6] $end
$var wire 1 ' leds [5] $end
$var wire 1 ( leds [4] $end
$var wire 1 ) leds [3] $end
$var wire 1 * leds [2] $end
$var wire 1 + leds [1] $end
$var wire 1 , leds [0] $end
$var wire 1 - serial_tx $end
$var wire 1 . serial_rx $end

$scope module uut $end
$var wire 1 / clk $end
$var wire 1 0 rst $end
$var wire 1 1 btn $end
$var wire 1 2 sw [7] $end
$var wire 1 3 sw [6] $end
$var wire 1 4 sw [5] $end
$var wire 1 5 sw [4] $end
$var wire 1 6 sw [3] $end
$var wire 1 7 sw [2] $end
$var wire 1 8 sw [1] $end
$var wire 1 9 sw [0] $end
$var wire 1 % leds [7] $end
$var wire 1 & leds [6] $end
$var wire 1 ' leds [5] $end
$var wire 1 ( leds [4] $end
$var wire 1 ) leds [3] $end
$var wire 1 * leds [2] $end
$var wire 1 + leds [1] $end
$var wire 1 , leds [0] $end
$var wire 1 - serial_tx $end
$var wire 1 . serial_rx $end
$var wire 1 : send_pulse $end

$scope module debouncer $end
$var wire 1 / clk $end
$var wire 1 1 btn $end
$var reg 1 ; out $end
$var reg 16 < counter [15:0] $end
$var reg 1 = btn_sync_0 $end
$var reg 1 > btn_sync_1 $end
$upscope $end

$scope module transmitter $end
$var parameter 32 ? base_freq $end
$var parameter 32 @ baudrate $end
$var parameter 32 A counts_per_bit $end
$var parameter 32 B TX_IDLE $end
$var parameter 32 C TX_START $end
$var parameter 32 D TX_DATA $end
$var parameter 32 E TX_PARITY $end
$var parameter 32 F TX_STOP $end
$var wire 1 2 data [7] $end
$var wire 1 3 data [6] $end
$var wire 1 4 data [5] $end
$var wire 1 5 data [4] $end
$var wire 1 6 data [3] $end
$var wire 1 7 data [2] $end
$var wire 1 8 data [1] $end
$var wire 1 9 data [0] $end
$var wire 1 : send_data $end
$var wire 1 / clk $end
$var wire 1 0 rst $end
$var reg 1 G serial_out $end
$var reg 3 H active_state [2:0] $end
$var reg 32 I clock_ctr [31:0] $end
$var reg 3 J d_idx [2:0] $end
$var reg 4 K one_count [3:0] $end
$upscope $end

$scope module uart_receiver $end
$var parameter 32 L COUNTS_PER_BIT $end
$var parameter 32 M DATA_BITS $end
$var parameter 32 N CLOCK_CTR_WIDTH $end
$var parameter 32 O D_IDX_WIDTH $end
$var parameter 32 P base_freq $end
$var parameter 32 Q baudrate $end
$var parameter 32 R counts_per_bit_calc $end
$var parameter 32 S RX_IDLE $end
$var parameter 32 T RX_START $end
$var parameter 32 U RX_DATA $end
$var parameter 32 V RX_PARITY $end
$var parameter 32 W RX_STOP $end
$var wire 1 . serial_data_in $end
$var wire 1 / clk $end
$var wire 1 0 rst $end
$var wire 1 X parity_type [1] $end
$var wire 1 Y parity_type [0] $end
$var reg 1 Z parity_error $end
$var reg 8 [ parallel_out [7:0] $end
$var reg 3 \ active_state [2:0] $end
$var reg 2 ] parity_type_reg [1:0] $end
$var reg 32 ^ clock_ctr [31:0] $end
$var reg 3 _ d_idx [2:0] $end
$var reg 8 ` data_reg [7:0] $end
$var wire 1 a calc_parity $end
$upscope $end
$upscope $end
$upscope $end
$enddefinitions $end
#0
$dumpvars
0!
1"
0#
b10101010 $
x;
bx <
x=
x>
xG
bx H
bx I
bx J
bx K
xZ
bx [
bx \
bx ]
bx ^
bx _
bx `
b10111110101111000010000000 ?
b11100001000000000 @
b110110010 A
b0 B
b1 C
b10 D
b11 E
b100 F
b110110010 L
b1000 M
b100000 N
b11 O
b10111110101111000010000000 P
b11100001000000000 Q
b110110010 R
b0 S
b1 T
b10 U
b11 V
b100 W
x,
x+
x*
x)
x(
x'
x&
x%
x-
x.
x:
xa
09
18
07
16
05
14
03
12
01
10
0/
1Y
0X
$end
#10000
1!
1/
b0 <
0=
0;
b0 H
b1 ]
b0 \
0:
#20000
0!
0/
#30000
1!
1/
b0 _
b0 ^
0Z
1G
0>
1-
1.
#40000
0!
0/
#50000
1!
1/
#60000
0!
0/
#70000
1!
1/
#80000
0!
0/
#90000
1!
1/
#100000
0"
0!
00
0/
b0 I
b0 J
b0 K
b0 [
b0 `
b0 ]
0a
0,
0+
0*
0)
0(
0'
0&
0%
#110000
1!
1/
#120000
0!
0/
#130000
1!
1/
#140000
0!
0/
#150000
1!
1/
#160000
0!
0/
#170000
1!
1/
#180000
0!
0/
#190000
1!
1/
#200000
1#
0!
11
0/
#210000
1!
1/
1=
#220000
0!
0/
#230000
1!
1/
1>
#240000
0!
0/
#250000
1!
1/
b1 <
#260000
0!
0/
#270000
1!
1/
b10 <
#280000
0!
0/
#290000
1!
1/
b11 <
#300000
0#
0!
01
0/
#310000
1!
1/
b100 <
0=
#320000
0!
0/
#330000
1!
1/
b101 <
0>
#340000
0!
0/
#350000
1!
1/
b0 <
