pwm/simulation/questa/pwm_tb.vcd
$date
	Sat Mar  1 11:47:01 2025
$end
$version
	Questa Intel Starter FPGA Edition Version 2023.3
$end
$timescale
	1ps
$end

$scope module pwm_tb $end
$var reg 1 ! clk $end
$var reg 1 " rst $end
$var reg 8 # duty_cycle [7:0] $end
$var wire 1 $ pwm_out $end

$scope module DUT $end
$var wire 1 % clk $end
$var wire 1 & rst $end
$var wire 1 ' duty_cycle [32] $end
$var wire 1 ( duty_cycle [31] $end
$var wire 1 ) duty_cycle [30] $end
$var wire 1 * duty_cycle [29] $end
$var wire 1 + duty_cycle [28] $end
$var wire 1 , duty_cycle [27] $end
$var wire 1 - duty_cycle [26] $end
$var wire 1 . duty_cycle [25] $end
$var wire 1 / duty_cycle [24] $end
$var wire 1 0 duty_cycle [23] $end
$var wire 1 1 duty_cycle [22] $end
$var wire 1 2 duty_cycle [21] $end
$var wire 1 3 duty_cycle [20] $end
$var wire 1 4 duty_cycle [19] $end
$var wire 1 5 duty_cycle [18] $end
$var wire 1 6 duty_cycle [17] $end
$var wire 1 7 duty_cycle [16] $end
$var wire 1 8 duty_cycle [15] $end
$var wire 1 9 duty_cycle [14] $end
$var wire 1 : duty_cycle [13] $end
$var wire 1 ; duty_cycle [12] $end
$var wire 1 < duty_cycle [11] $end
$var wire 1 = duty_cycle [10] $end
$var wire 1 > duty_cycle [9] $end
$var wire 1 ? duty_cycle [8] $end
$var wire 1 @ duty_cycle [7] $end
$var wire 1 A duty_cycle [6] $end
$var wire 1 B duty_cycle [5] $end
$var wire 1 C duty_cycle [4] $end
$var wire 1 D duty_cycle [3] $end
$var wire 1 E duty_cycle [2] $end
$var wire 1 F duty_cycle [1] $end
$var wire 1 G duty_cycle [0] $end
$var wire 1 $ pwm_out $end
$var wire 1 H count [7] $end
$var wire 1 I count [6] $end
$var wire 1 J count [5] $end
$var wire 1 K count [4] $end
$var wire 1 L count [3] $end
$var wire 1 M count [2] $end
$var wire 1 N count [1] $end
$var wire 1 O count [0] $end

$scope module u_cycle_counter $end
$var wire 1 % clk $end
$var wire 1 & rst $end
$var reg 8 P count [7:0] $end
$upscope $end

$scope module u_pwm_generator $end
$var wire 1 Q count [32] $end
$var wire 1 R count [31] $end
$var wire 1 S count [30] $end
$var wire 1 T count [29] $end
$var wire 1 U count [28] $end
$var wire 1 V count [27] $end
$var wire 1 W count [26] $end
$var wire 1 X count [25] $end
$var wire 1 Y count [24] $end
$var wire 1 Z count [23] $end
$var wire 1 [ count [22] $end
$var wire 1 \ count [21] $end
$var wire 1 ] count [20] $end
$var wire 1 ^ count [19] $end
$var wire 1 _ count [18] $end
$var wire 1 ` count [17] $end
$var wire 1 a count [16] $end
$var wire 1 b count [15] $end
$var wire 1 c count [14] $end
$var wire 1 d count [13] $end
$var wire 1 e count [12] $end
$var wire 1 f count [11] $end
$var wire 1 g count [10] $end
$var wire 1 h count [9] $end
$var wire 1 i count [8] $end
$var wire 1 H count [7] $end
$var wire 1 I count [6] $end
$var wire 1 J count [5] $end
$var wire 1 K count [4] $end
$var wire 1 L count [3] $end
$var wire 1 M count [2] $end
$var wire 1 N count [1] $end
$var wire 1 O count [0] $end
$var wire 1 ' duty_cycle [32] $end
$var wire 1 ( duty_cycle [31] $end
$var wire 1 ) duty_cycle [30] $end
$var wire 1 * duty_cycle [29] $end
$var wire 1 + duty_cycle [28] $end
$var wire 1 , duty_cycle [27] $end
$var wire 1 - duty_cycle [26] $end
$var wire 1 . duty_cycle [25] $end
$var wire 1 / duty_cycle [24] $end
$var wire 1 0 duty_cycle [23] $end
$var wire 1 1 duty_cycle [22] $end
$var wire 1 2 duty_cycle [21] $end
$var wire 1 3 duty_cycle [20] $end
$var wire 1 4 duty_cycle [19] $end
$var wire 1 5 duty_cycle [18] $end
$var wire 1 6 duty_cycle [17] $end
$var wire 1 7 duty_cycle [16] $end
$var wire 1 8 duty_cycle [15] $end
$var wire 1 9 duty_cycle [14] $end
$var wire 1 : duty_cycle [13] $end
$var wire 1 ; duty_cycle [12] $end
$var wire 1 < duty_cycle [11] $end
$var wire 1 = duty_cycle [10] $end
$var wire 1 > duty_cycle [9] $end
$var wire 1 ? duty_cycle [8] $end
$var wire 1 @ duty_cycle [7] $end
$var wire 1 A duty_cycle [6] $end
$var wire 1 B duty_cycle [5] $end
$var wire 1 C duty_cycle [4] $end
$var wire 1 D duty_cycle [3] $end
$var wire 1 E duty_cycle [2] $end
$var wire 1 F duty_cycle [1] $end
$var wire 1 G duty_cycle [0] $end
$var reg 1 j pwm_out $end
$upscope $end
$upscope $end
$upscope $end
$enddefinitions $end
#0
$dumpvars
0!
0"
b0 #
b0 P
0j
0$
0O
0N
0M
0L
0K
0J
0I
0H
0G
0F
0E
0D
0C
0B
0A
0@
0&
0%
0?
0>
0=
0<
0;
0:
09
08
07
06
05
04
03
02
01
00
0/
0.
0-
0,
0+
0*
0)
0(
0'
zi
zh
zg
zf
ze
zd
zc
zb
za
z`
z_
z^
z]
z\
z[
zZ
zY
zX
zW
zV
zU
zT
zS
zR
zQ
$end
#5000
1!
1%
#10000
0!
0%
#15000
1!
1%
#20000
1"
0!
1&
0%
#25000
1!
1%
b1 P
1O
#30000
0!
0%
#35000
1!
1%
b10 P
0O
1N
#40000
0!
0%
#45000
1!
1%
b11 P
1O
#50000
0!
0%
#55000
1!
1%
b100 P
0O
0N
1M
#60000
0!
0%
#65000
1!
1%
b101 P
1O
#70000
b1000000 #
0!
1A
0%
#75000
1!
1%
b110 P
0O
1N
#80000
0!
0%
#85000
1!
1%
b111 P
1O
#90000
0!
0%
#95000
1!
1%
b1000 P
0O
0N
0M
1L
#100000
0!
0%
#105000
1!
1%
b1001 P
1O
#110000
0!
0%
#115000
1!
1%
b1010 P
0O
1N
#120000
0!
0%
#125000
1!
1%
b1011 P
1O
#130000
0!
0%
#135000
1!
1%
b1100 P
0O
0N
1M
#140000
0!
0%
#145000
1!
1%
b1101 P
1O
#150000
0!
0%
#155000
1!
1%
b1110 P
0O
1N
#160000
0!
0%
#165000
1!
1%
b1111 P
1O
#170000
b10000000 #
0!
0A
1@
0%
#175000
1!
1%
b10000 P
0O
0N
0M
0L
1K
#180000
0!
0%
#185000
1!
1%
b10001 P
1O
#190000
0!
0%
#195000
1!
1%
b10010 P
0O
1N
#200000
0!
0%
#205000
1!
1%
b10011 P
1O
#210000
0!
0%
#215000
1!
1%
b10100 P
0O
0N
1M
#220000
0!
0%
#225000
1!
1%
b10101 P
1O
#230000
0!
0%
#235000
1!
1%
b10110 P
0O
1N
#240000
0!
0%
#245000
1!
1%
b10111 P
1O
#250000
0!
0%
#255000
1!
1%
b11000 P
0O
0N
0M
1L
#260000
0!
0%
#265000
1!
1%
b11001 P
1O
#270000
b11000000 #
0!
1A
0%
#275000
1!
1%
b11010 P
0O
1N
#280000
0!
0%
#285000
1!
1%
b11011 P
1O
#290000
0!
0%
#295000
1!
1%
b11100 P
0O
0N
1M
#300000
0!
0%
#305000
1!
1%
b11101 P
1O
#310000
0!
0%
#315000
1!
1%
b11110 P
0O
1N
#320000
0!
0%
#325000
1!
1%
b11111 P
1O
#330000
0!
0%
#335000
1!
1%
b100000 P
0O
0N
0M
0L
0K
1J
#340000
0!
0%
#345000
1!
1%
b100001 P
1O
#350000
0!
0%
#355000
1!
1%
b100010 P
0O
1N
#360000
0!
0%
#365000
1!
1%
b100011 P
1O
#370000
0!
0%
#375000
1!
1%
b100100 P
0O
0N
1M
#380000
0!
0%
#385000
1!
1%
b100101 P
1O
#390000
0!
0%
#395000
1!
1%
b100110 P
0O
1N
#400000
0!
0%
#405000
1!
1%
b100111 P
1O
#410000
0!
0%
#415000
1!
1%
b101000 P
0O
0N
0M
1L
#420000
0!
0%
#425000
1!
1%
b101001 P
1O
#430000
0!
0%
#435000
1!
1%
b101010 P
0O
1N
#440000
0!
0%
#445000
1!
1%
b101011 P
1O
#450000
0!
0%
#455000
1!
1%
b101100 P
0O
0N
1M
#460000
0!
0%
#465000
1!
1%
b101101 P
1O
#470000
0!
0%
#475000
1!
1%
b101110 P
0O
1N
#480000
0!
0%
#485000
1!
1%
b101111 P
1O
#490000
0!
0%
#495000
1!
1%
b110000 P
0O
0N
0M
0L
1K
#500000
0!
0%
#505000
1!
1%
b110001 P
1O
#510000
0!
0%
#515000
1!
1%
b110010 P
0O
1N
#520000
0!
0%
#525000
1!
1%
b110011 P
1O
#530000
0!
0%
#535000
1!
1%
b110100 P
0O
0N
1M
#540000
0!
0%
#545000
1!
1%
b110101 P
1O
#550000
0!
0%
#555000
1!
1%
b110110 P
0O
1N
#560000
0!
0%
#565000
1!
1%
b110111 P
1O
#570000
0!
0%
#575000
1!
1%
b111000 P
0O
0N
0M
1L
#580000
0!
0%
#585000
1!
1%
b111001 P
1O
#590000
0!
0%
#595000
1!
1%
b111010 P
0O
1N
#600000
0!
0%
#605000
1!
1%
b111011 P
1O
#610000
0!
0%
#615000
1!
1%
b111100 P
0O
0N
1M
#620000
0!
0%
#625000
1!
1%
b111101 P
1O
#630000
0!
0%
#635000
1!
1%
b111110 P
0O
1N
#640000
0!
0%
#645000
1!
1%
b111111 P
1O
#650000
0!
0%
#655000
1!
1%
b1000000 P
0O
0N
0M
0L
0K
0J
1I
#660000
0!
0%
#665000
1!
1%
b1000001 P
1O
#670000
0!
0%
#675000
1!
1%
b1000010 P
0O
1N
#680000
0!
0%
#685000
1!
1%
b1000011 P
1O
#690000
0!
0%
#695000
1!
1%
b1000100 P
0O
0N
1M
#700000
0!
0%
#705000
1!
1%
b1000101 P
1O
#710000
0!
0%
#715000
1!
1%
b1000110 P
0O
1N
#720000
0!
0%
#725000
1!
1%
b1000111 P
1O
#730000
0!
0%
#735000
1!
1%
b1001000 P
0O
0N
0M
1L
#740000
0!
0%
#745000
1!
1%
b1001001 P
1O
#750000
0!
0%
#755000
1!
1%
b1001010 P
0O
1N
#760000
0!
0%
#765000
1!
1%
b1001011 P
1O
#770000
0!
0%
#775000
1!
1%
b1001100 P
0O
0N
1M
#780000
0!
0%
#785000
1!
1%
b1001101 P
1O
#790000
0!
0%
#795000
1!
1%
b1001110 P
0O
1N
#800000
0!
0%
#805000
1!
1%
b1001111 P
1O
#810000
0!
0%
#815000
1!
1%
b1010000 P
0O
0N
0M
0L
1K
#820000
0!
0%
#825000
1!
1%
b1010001 P
1O
#830000
0!
0%
#835000
1!
1%
b1010010 P
0O
1N
#840000
0!
0%
#845000
1!
1%
b1010011 P
1O
#850000
0!
0%
#855000
1!
1%
b1010100 P
0O
0N
1M
#860000
0!
0%
#865000
1!
1%
b1010101 P
1O
#870000
0!
0%
#875000
1!
1%
b1010110 P
0O
1N
#880000
0!
0%
#885000
1!
1%
b1010111 P
1O
#890000
0!
0%
#895000
1!
1%
b1011000 P
0O
0N
0M
1L
#900000
0!
0%
#905000
1!
1%
b1011001 P
1O
#910000
0!
0%
#915000
1!
1%
b1011010 P
0O
1N
#920000
0!
0%
#925000
1!
1%
b1011011 P
1O
#930000
0!
0%
#935000
1!
1%
b1011100 P
0O
0N
1M
#940000
0!
0%
#945000
1!
1%
b1011101 P
1O
#950000
0!
0%
#955000
1!
1%
b1011110 P
0O
1N
#960000
0!
0%
#965000
1!
1%
b1011111 P
1O
#970000
0!
0%
#975000
1!
1%
b1100000 P
0O
0N
0M
0L
0K
1J
#980000
0!
0%
#985000
1!
1%
b1100001 P
1O
#990000
0!
0%
#995000
1!
1%
b1100010 P
0O
1N
#1000000
0!
0%
#1005000
1!
1%
b1100011 P
1O
#1010000
0!
0%
#1015000
1!
1%
b1100100 P
0O
0N
1M
#1020000
0!
0%
#1025000
1!
1%
b1100101 P
1O
#1030000
0!
0%
#1035000
1!
1%
b1100110 P
0O
1N
#1040000
0!
0%
#1045000
1!
1%
b1100111 P
1O
#1050000
0!
0%
#1055000
1!
1%
b1101000 P
0O
0N
0M
1L
#1060000
0!
0%
#1065000
1!
1%
b1101001 P
1O
#1070000
0!
0%
#1075000
1!
1%
b1101010 P
0O
1N
#1080000
0!
0%
#1085000
1!
1%
b1101011 P
1O
#1090000
0!
0%
#1095000
1!
1%
b1101100 P
0O
0N
1M
#1100000
0!
0%
#1105000
1!
1%
b1101101 P
1O
#1110000
0!
0%
#1115000
1!
1%
b1101110 P
0O
1N
#1120000
0!
0%
#1125000
1!
1%
b1101111 P
1O
#1130000
0!
0%
#1135000
1!
1%
b1110000 P
0O
0N
0M
0L
1K
#1140000
0!
0%
#1145000
1!
1%
b1110001 P
1O
#1150000
0!
0%
#1155000
1!
1%
b1110010 P
0O
1N
#1160000
0!
0%
#1165000
1!
1%
b1110011 P
1O
#1170000
0!
0%
#1175000
1!
1%
b1110100 P
0O
0N
1M
#1180000
0!
0%
#1185000
1!
1%
b1110101 P
1O
#1190000
0!
0%
#1195000
1!
1%
b1110110 P
0O
1N
#1200000
0!
0%
#1205000
1!
1%
b1110111 P
1O
#1210000
0!
0%
#1215000
1!
1%
b1111000 P
0O
0N
0M
1L
#1220000
0!
0%
#1225000
1!
1%
b1111001 P
1O
#1230000
0!
0%
#1235000
1!
1%
b1111010 P
0O
1N
#1240000
0!
0%
#1245000
1!
1%
b1111011 P
1O
#1250000
0!
0%
#1255000
1!
1%
b1111100 P
0O
0N
1M
#1260000
0!
0%
#1265000
1!
1%
b1111101 P
1O
#1270000
0!
0%
#1275000
1!
1%
b1111110 P
0O
1N
#1280000
0!
0%
#1285000
1!
1%
b1111111 P
1O
#1290000
0!
0%
#1295000
1!
1%
b10000000 P
0O
0N
0M
0L
0K
0J
0I
1H
#1300000
0!
0%
#1305000
1!
1%
b10000001 P
1O
#1310000
0!
0%
#1315000
1!
1%
b10000010 P
0O
1N
#1320000
0!
0%
#1325000
1!
1%
b10000011 P
1O
#1330000
0!
0%
#1335000
1!
1%
b10000100 P
0O
0N
1M
#1340000
0!
0%
#1345000
1!
1%
b10000101 P
1O
#1350000
0!
0%
#1355000
1!
1%
b10000110 P
0O
1N
#1360000
0!
0%
#1365000
1!
1%
b10000111 P
1O
#1370000
0!
0%
#1375000
1!
1%
b10001000 P
0O
0N
0M
1L
#1380000
0!
0%
#1385000
1!
1%
b10001001 P
1O
#1390000
0!
0%
#1395000
1!
1%
b10001010 P
0O
1N
#1400000
0!
0%
#1405000
1!
1%
b10001011 P
1O
#1410000
0!
0%
#1415000
1!
1%
b10001100 P
0O
0N
1M
#1420000
0!
0%
#1425000
1!
1%
b10001101 P
1O
#1430000
0!
0%
#1435000
1!
1%
b10001110 P
0O
1N
#1440000
0!
0%
#1445000
1!
1%
b10001111 P
1O
#1450000
0!
0%
#1455000
1!
1%
b10010000 P
0O
0N
0M
0L
1K
#1460000
0!
0%
#1465000
1!
1%
b10010001 P
1O
#1470000
0!
0%
#1475000
1!
1%
b10010010 P
0O
1N
#1480000
0!
0%
#1485000
1!
1%
b10010011 P
1O
#1490000
0!
0%
#1495000
1!
1%
b10010100 P
0O
0N
1M
#1500000
0!
0%
#1505000
1!
1%
b10010101 P
1O
#1510000
0!
0%
#1515000
1!
1%
b10010110 P
0O
1N
#1520000
0!
0%
#1525000
1!
1%
b10010111 P
1O
#1530000
0!
0%
#1535000
1!
1%
b10011000 P
0O
0N
0M
1L
#1540000
0!
0%
#1545000
1!
1%
b10011001 P
1O
#1550000
0!
0%
#1555000
1!
1%
b10011010 P
0O
1N
#1560000
0!
0%
#1565000
1!
1%
b10011011 P
1O
#1570000
0!
0%
#1575000
1!
1%
b10011100 P
0O
0N
1M
#1580000
0!
0%
#1585000
1!
1%
b10011101 P
1O
#1590000
0!
0%
#1595000
1!
1%
b10011110 P
0O
1N
#1600000
0!
0%
#1605000
1!
1%
b10011111 P
1O
#1610000
0!
0%
#1615000
1!
1%
b10100000 P
0O
0N
0M
0L
0K
1J
#1620000
0!
0%
#1625000
1!
1%
b10100001 P
1O
#1630000
0!
0%
#1635000
1!
1%
b10100010 P
0O
1N
#1640000
0!
0%
#1645000
1!
1%
b10100011 P
1O
#1650000
0!
0%
#1655000
1!
1%
b10100100 P
0O
0N
1M
#1660000
0!
0%
#1665000
1!
1%
b10100101 P
1O
#1670000
0!
0%
#1675000
1!
1%
b10100110 P
0O
1N
#1680000
0!
0%
#1685000
1!
1%
b10100111 P
1O
#1690000
0!
0%
#1695000
1!
1%
b10101000 P
0O
0N
0M
1L
#1700000
0!
0%
#1705000
1!
1%
b10101001 P
1O
#1710000
0!
0%
#1715000
1!
1%
b10101010 P
0O
1N
#1720000
0!
0%
#1725000
1!
1%
b10101011 P
1O
#1730000
0!
0%
#1735000
1!
1%
b10101100 P
0O
0N
1M
#1740000
0!
0%
#1745000
1!
1%
b10101101 P
1O
#1750000
0!
0%
#1755000
1!
1%
b10101110 P
0O
1N
#1760000
0!
0%
#1765000
1!
1%
b10101111 P
1O
#1770000
0!
0%
#1775000
1!
1%
b10110000 P
0O
0N
0M
0L
1K
#1780000
0!
0%
#1785000
1!
1%
b10110001 P
1O
#1790000
0!
0%
#1795000
1!
1%
b10110010 P
0O
1N
#1800000
0!
0%
#1805000
1!
1%
b10110011 P
1O
#1810000
0!
0%
#1815000
1!
1%
b10110100 P
0O
0N
1M
#1820000
0!
0%
#1825000
1!
1%
b10110101 P
1O
#1830000
0!
0%
#1835000
1!
1%
b10110110 P
0O
1N
#1840000
0!
0%
#1845000
1!
1%
b10110111 P
1O
#1850000
0!
0%
#1855000
1!
1%
b10111000 P
0O
0N
0M
1L
#1860000
0!
0%
#1865000
1!
1%
b10111001 P
1O
#1870000
0!
0%
#1875000
1!
1%
b10111010 P
0O
1N
#1880000
0!
0%
#1885000
1!
1%
b10111011 P
1O
#1890000
0!
0%
#1895000
1!
1%
b10111100 P
0O
0N
1M
#1900000
0!
0%
#1905000
1!
1%
b10111101 P
1O
#1910000
0!
0%
#1915000
1!
1%
b10111110 P
0O
1N
#1920000
0!
0%
#1925000
1!
1%
b10111111 P
1O
#1930000
0!
0%
#1935000
1!
1%
b11000000 P
0O
0N
0M
0L
0K
0J
1I
#1940000
0!
0%
#1945000
1!
1%
b11000001 P
1O
#1950000
0!
0%
#1955000
1!
1%
b11000010 P
0O
1N
#1960000
0!
0%
#1965000
1!
1%
b11000011 P
1O
#1970000
0!
0%
#1975000
1!
1%
b11000100 P
0O
0N
1M
#1980000
0!
0%
#1985000
1!
1%
b11000101 P
1O
#1990000
0!
0%
#1995000
1!
1%
b11000110 P
0O
1N
#2000000
0!
0%
#2005000
1!
1%
b11000111 P
1O
#2010000
0!
0%
#2015000
1!
1%
b11001000 P
0O
0N
0M
1L
#2020000
0!
0%
#2025000
1!
1%
b11001001 P
1O
#2030000
0!
0%
#2035000
1!
1%
b11001010 P
0O
1N
#2040000
0!
0%
#2045000
1!
1%
b11001011 P
1O
#2050000
0!
0%
#2055000
1!
1%
b11001100 P
0O
0N
1M
#2060000
0!
0%
#2065000
1!
1%
b11001101 P
1O
#2070000
0!
0%
#2075000
1!
1%
b11001110 P
0O
1N
#2080000
0!
0%
#2085000
1!
1%
b11001111 P
1O
#2090000
0!
0%
#2095000
1!
1%
b11010000 P
0O
0N
0M
0L
1K
#2100000
0!
0%
#2105000
1!
1%
b11010001 P
1O
#2110000
0!
0%
#2115000
1!
1%
b11010010 P
0O
1N
#2120000
0!
0%
#2125000
1!
1%
b11010011 P
1O
#2130000
0!
0%
#2135000
1!
1%
b11010100 P
0O
0N
1M
#2140000
0!
0%
#2145000
1!
1%
b11010101 P
1O
#2150000
0!
0%
#2155000
1!
1%
b11010110 P
0O
1N
#2160000
0!
0%
#2165000
1!
1%
b11010111 P
1O
#2170000
0!
0%
#2175000
1!
1%
b11011000 P
0O
0N
0M
1L
#2180000
0!
0%
#2185000
1!
1%
b11011001 P
1O
#2190000
0!
0%
#2195000
1!
1%
b11011010 P
0O
1N
#2200000
0!
0%
#2205000
1!
1%
b11011011 P
1O
#2210000
0!
0%
#2215000
1!
1%
b11011100 P
0O
0N
1M
#2220000
0!
0%
#2225000
1!
1%
b11011101 P
1O
#2230000
0!
0%
#2235000
1!
1%
b11011110 P
0O
1N
#2240000
0!
0%
#2245000
1!
1%
b11011111 P
1O
#2250000
0!
0%
#2255000
1!
1%
b11100000 P
0O
0N
0M
0L
0K
1J
#2260000
0!
0%
#2265000
1!
1%
b11100001 P
1O
#2270000
0!
0%
#2275000
1!
1%
b11100010 P
0O
1N
#2280000
0!
0%
#2285000
1!
1%
b11100011 P
1O
#2290000
0!
0%
#2295000
1!
1%
b11100100 P
0O
0N
1M
#2300000
0!
0%
#2305000
1!
1%
b11100101 P
1O
#2310000
0!
0%
#2315000
1!
1%
b11100110 P
0O
1N
#2320000
0!
0%
#2325000
1!
1%
b11100111 P
1O
#2330000
0!
0%
#2335000
1!
1%
b11101000 P
0O
0N
0M
1L
#2340000
0!
0%
#2345000
1!
1%
b11101001 P
1O
#2350000
0!
0%
#2355000
1!
1%
b11101010 P
0O
1N
#2360000
0!
0%
#2365000
1!
1%
b11101011 P
1O
#2370000
0!
0%
#2375000
1!
1%
b11101100 P
0O
0N
1M
#2380000
0!
0%
#2385000
1!
1%
b11101101 P
1O
#2390000
0!
0%
#2395000
1!
1%
b11101110 P
0O
1N
#2400000
0!
0%
#2405000
1!
1%
b11101111 P
1O
#2410000
0!
0%
#2415000
1!
1%
b11110000 P
0O
0N
0M
0L
1K
#2420000
0!
0%
#2425000
1!
1%
b11110001 P
1O
#2430000
0!
0%
#2435000
1!
1%
b11110010 P
0O
1N
#2440000
0!
0%
#2445000
1!
1%
b11110011 P
1O
#2450000
0!
0%
#2455000
1!
1%
b11110100 P
0O
0N
1M
#2460000
0!
0%
#2465000
1!
1%
b11110101 P
1O
#2470000
0!
0%
#2475000
1!
1%
b11110110 P
0O
1N
#2480000
0!
0%
#2485000
1!
1%
b11110111 P
1O
#2490000
0!
0%
#2495000
1!
1%
b11111000 P
0O
0N
0M
1L
#2500000
0!
0%
#2505000
1!
1%
b11111001 P
1O
#2510000
0!
0%
#2515000
1!
1%
b11111010 P
0O
1N
#2520000
0!
0%
#2525000
1!
1%
b11111011 P
1O
#2530000
0!
0%
#2535000
1!
1%
b11111100 P
0O
0N
1M
#2540000
0!
0%
#2545000
1!
1%
b11111101 P
1O
#2550000
0!
0%
#2555000
1!
1%
b11111110 P
0O
1N
#2560000
0!
0%
#2565000
1!
1%
b11111111 P
1O
#2570000
0!
0%
#2575000
1!
1%
b0 P
0O
0N
0M
0L
0K
0J
0I
0H
#2580000
0!
0%
#2585000
1!
1%
b1 P
1O
#2590000
0!
0%
#2595000
1!
1%
b10 P
0O
1N
#2600000
0!
0%
#2605000
1!
1%
b11 P
1O
#2610000
0!
0%
#2615000
1!
1%
b100 P
0O
0N
1M
#2620000
0!
0%
#2625000
1!
1%
b101 P
1O
#2630000
0!
0%
#2635000
1!
1%
b110 P
0O
1N
#2640000
0!
0%
#2645000
1!
1%
b111 P
1O
#2650000
0!
0%
#2655000
1!
1%
b1000 P
0O
0N
0M
1L
#2660000
0!
0%
#2665000
1!
1%
b1001 P
1O
#2670000
0!
0%
#2675000
1!
1%
b1010 P
0O
1N
#2680000
0!
0%
#2685000
1!
1%
b1011 P
1O
#2690000
0!
0%
#2695000
1!
1%
b1100 P
0O
0N
1M
#2700000
0!
0%
#2705000
1!
1%
b1101 P
1O
#2710000
0!
0%
#2715000
1!
1%
b1110 P
0O
1N
#2720000
0!
0%
#2725000
1!
1%
b1111 P
1O
#2730000
0!
0%
#2735000
1!
1%
b10000 P
0O
0N
0M
0L
1K
#2740000
0!
0%
#2745000
1!
1%
b10001 P
1O
#2750000
0!
0%
#2755000
1!
1%
b10010 P
0O
1N
#2760000
0!
0%
#2765000
1!
1%
b10011 P
1O
#2770000
0!
0%
#2775000
1!
1%
b10100 P
0O
0N
1M
#2780000
0!
0%
#2785000
1!
1%
b10101 P
1O
#2790000
0!
0%
#2795000
1!
1%
b10110 P
0O
1N
#2800000
0!
0%
#2805000
1!
1%
b10111 P
1O
#2810000
0!
0%
#2815000
1!
1%
b11000 P
0O
0N
0M
1L
#2820000
0!
0%
#2825000
1!
1%
b11001 P
1O
#2830000
0!
0%
#2835000
1!
1%
b11010 P
0O
1N
#2840000
0!
0%
#2845000
1!
1%
b11011 P
1O
#2850000
0!
0%
#2855000
1!
1%
b11100 P
0O
0N
1M
#2860000
0!
0%
#2865000
1!
1%
b11101 P
1O
#2870000
0!
0%
#2875000
1!
1%
b11110 P
0O
1N
#2880000
0!
0%
#2885000
1!
1%
b11111 P
1O
#2890000
0!
0%
#2895000
1!
1%
b100000 P
0O
0N
0M
0L
0K
1J
#2900000
0!
0%
#2905000
1!
1%
b100001 P
1O
#2910000
0!
0%
#2915000
1!
1%
b100010 P
0O
1N
#2920000
0!
0%
#2925000
1!
1%
b100011 P
1O
#2930000
0!
0%
#2935000
1!
1%
b100100 P
0O
0N
1M
#2940000
0!
0%
#2945000
1!
1%
b100101 P
1O
#2950000
0!
0%
#2955000
1!
1%
b100110 P
0O
1N
#2960000
0!
0%
#2965000
1!
1%
b100111 P
1O
#2970000
0!
0%
#2975000
1!
1%
b101000 P
0O
0N
0M
1L
#2980000
0!
0%
#2985000
1!
1%
b101001 P
1O
#2990000
0!
0%
#2995000
1!
1%
b101010 P
0O
1N
#3000000
0!
0%
#3005000
1!
1%
b101011 P
1O
#3010000
0!
0%
#3015000
1!
1%
b101100 P
0O
0N
1M
#3020000
0!
0%
#3025000
1!
1%
b101101 P
1O
#3030000
0!
0%
#3035000
1!
1%
b101110 P
0O
1N
#3040000
0!
0%
#3045000
1!
1%
b101111 P
1O
#3050000
0!
0%
#3055000
1!
1%
b110000 P
0O
0N
0M
0L
1K
#3060000
0!
0%
#3065000
1!
1%
b110001 P
1O
#3070000
0!
0%
#3075000
1!
1%
b110010 P
0O
1N
#3080000
0!
0%
#3085000
1!
1%
b110011 P
1O
#3090000
0!
0%
#3095000
1!
1%
b110100 P
0O
0N
1M
#3100000
0!
0%
#3105000
1!
1%
b110101 P
1O
#3110000
0!
0%
#3115000
1!
1%
b110110 P
0O
1N
#3120000
0!
0%
#3125000
1!
1%
b110111 P
1O
#3130000
0!
0%
#3135000
1!
1%
b111000 P
0O
0N
0M
1L
#3140000
0!
0%
#3145000
1!
1%
b111001 P
1O
#3150000
0!
0%
#3155000
1!
1%
b111010 P
0O
1N
#3160000
0!
0%
#3165000
1!
1%
b111011 P
1O
#3170000
0!
0%
#3175000
1!
1%
b111100 P
0O
0N
1M
#3180000
0!
0%
#3185000
1!
1%
b111101 P
1O
#3190000
0!
0%
#3195000
1!
1%
b111110 P
0O
1N
#3200000
0!
0%
#3205000
1!
1%
b111111 P
1O
#3210000
0!
0%
#3215000
1!
1%
b1000000 P
0O
0N
0M
0L
0K
0J
1I
#3220000
0!
0%
#3225000
1!
1%
b1000001 P
1O
#3230000
0!
0%
#3235000
1!
1%
b1000010 P
0O
1N
#3240000
0!
0%
#3245000
1!
1%
b1000011 P
1O
#3250000
0!
0%
#3255000
1!
1%
b1000100 P
0O
0N
1M
#3260000
0!
0%
#3265000
1!
1%
b1000101 P
1O
#3270000
0!
0%
#3275000
1!
1%
b1000110 P
0O
1N
#3280000
0!
0%
#3285000
1!
1%
b1000111 P
1O
#3290000
0!
0%
#3295000
1!
1%
b1001000 P
0O
0N
0M
1L
#3300000
0!
0%
#3305000
1!
1%
b1001001 P
1O
#3310000
0!
0%
#3315000
1!
1%
b1001010 P
0O
1N
#3320000
0!
0%
#3325000
1!
1%
b1001011 P
1O
#3330000
0!
0%
#3335000
1!
1%
b1001100 P
0O
0N
1M
#3340000
0!
0%
#3345000
1!
1%
b1001101 P
1O
#3350000
0!
0%
#3355000
1!
1%
b1001110 P
0O
1N
#3360000
0!
0%
#3365000
1!
1%
b1001111 P
1O
#3370000
0!
0%
#3375000
1!
1%
b1010000 P
0O
0N
0M
0L
1K
#3380000
0!
0%
#3385000
1!
1%
b1010001 P
1O
#3390000
0!
0%
#3395000
1!
1%
b1010010 P
0O
1N
#3400000
0!
0%
#3405000
1!
1%
b1010011 P
1O
#3410000
0!
0%
#3415000
1!
1%
b1010100 P
0O
0N
1M
#3420000
0!
0%
#3425000
1!
1%
b1010101 P
1O
#3430000
0!
0%
#3435000
1!
1%
b1010110 P
0O
1N
#3440000
0!
0%
#3445000
1!
1%
b1010111 P
1O
#3450000
0!
0%
#3455000
1!
1%
b1011000 P
0O
0N
0M
1L
#3460000
0!
0%
#3465000
1!
1%
b1011001 P
1O
#3470000
0!
0%
#3475000
1!
1%
b1011010 P
0O
1N
#3480000
0!
0%
#3485000
1!
1%
b1011011 P
1O
#3490000
0!
0%
#3495000
1!
1%
b1011100 P
0O
0N
1M
#3500000
0!
0%
#3505000
1!
1%
b1011101 P
1O
#3510000
0!
0%
#3515000
1!
1%
b1011110 P
0O
1N
#3520000
0!
0%
#3525000
1!
1%
b1011111 P
1O
#3530000
0!
0%
#3535000
1!
1%
b1100000 P
0O
0N
0M
0L
0K
1J
#3540000
0!
0%
#3545000
1!
1%
b1100001 P
1O
#3550000
0!
0%
#3555000
1!
1%
b1100010 P
0O
1N
#3560000
0!
0%
#3565000
1!
1%
b1100011 P
1O
#3570000
0!
0%
#3575000
1!
1%
b1100100 P
0O
0N
1M
#3580000
0!
0%
#3585000
1!
1%
b1100101 P
1O
#3590000
0!
0%
#3595000
1!
1%
b1100110 P
0O
1N
#3600000
0!
0%
#3605000
1!
1%
b1100111 P
1O
#3610000
0!
0%
#3615000
1!
1%
b1101000 P
0O
0N
0M
1L
#3620000
0!
0%
#3625000
1!
1%
b1101001 P
1O
#3630000
0!
0%
#3635000
1!
1%
b1101010 P
0O
1N
#3640000
0!
0%
#3645000
1!
1%
b1101011 P
1O
#3650000
0!
0%
